
-----------------------------work10----------------
2011/04/07 11:25:22
WorkDirectory /data/intradb/pipeline/catalog/sample_pipelines
Executing: mkdir  sample_demo 

--------------------------------------------------------------------------------------

-----------------------------work10----------------
2011/04/07 11:25:22
WorkDirectory /data/intradb/pipeline/catalog/sample_pipelines/sample_demo
Executing: mkdir  Loop1 

--------------------------------------------------------------------------------------

-----------------------------work10----------------
2011/04/07 11:25:23
WorkDirectory /data/intradb/pipeline/catalog/sample_pipelines/sample_demo
Executing: mkdir  Loop2 

--------------------------------------------------------------------------------------

-----------------------------work10----------------
2011/04/07 11:25:23
WorkDirectory /data/intradb/pipeline/catalog/sample_pipelines/sample_demo
Executing: mkdir  Loop3 

--------------------------------------------------------------------------------------

-----------------------------work10----------------
2011/04/07 11:25:23
WorkDirectory /data/intradb/pipeline/catalog/sample_pipelines/sample_demo
Executing: mkdir  AWAIT 

--------------------------------------------------------------------------------------

-----------------------------work10----------------
2011/04/07 11:33:08
WorkDirectory /data/intradb/pipeline/catalog/sample_pipelines
Executing: mkdir  sample_demo 

--------------------------------------------------------------------------------------
mkdir: cannot create directory `sample_demo': File exists

-----------------------------work10----------------
2011/04/07 11:34:17
WorkDirectory /data/intradb/pipeline/catalog/sample_pipelines
Executing: mkdir  sample_demo 

--------------------------------------------------------------------------------------
mkdir: cannot create directory `sample_demo': File exists

-----------------------------work10----------------
2011/04/07 11:58:55
WorkDirectory /data/intradb/pipeline/catalog/sample_pipelines
Executing: mkdir  sample_demo 

--------------------------------------------------------------------------------------
mkdir: cannot create directory `sample_demo': File exists

-----------------------------work10----------------
2011/04/07 12:09:19
WorkDirectory /data/intradb/pipeline/catalog/sample_pipelines
Executing: mkdir  sample_demo 

--------------------------------------------------------------------------------------
mkdir: cannot create directory `sample_demo': File exists

-----------------------------work10----------------
2011/04/07 12:11:03
WorkDirectory /data/intradb/pipeline/catalog/sample_pipelines
Executing: mkdir  sample_demo 

--------------------------------------------------------------------------------------
mkdir: cannot create directory `sample_demo': File exists

-----------------------------work10----------------
2011/04/07 12:11:23
WorkDirectory /data/intradb/pipeline/catalog/sample_pipelines
Executing: mkdir  sample_demo 

--------------------------------------------------------------------------------------
mkdir: cannot create directory `sample_demo': File exists

-----------------------------work10----------------
2011/04/07 12:26:11
WorkDirectory /data/intradb/pipeline/catalog/sample_pipelines
Executing: mkdir  sample_demo 

--------------------------------------------------------------------------------------
mkdir: cannot create directory `sample_demo': File exists

-----------------------------work10----------------
2011/04/07 12:26:15
WorkDirectory /data/intradb/pipeline/catalog/sample_pipelines
Executing: mkdir  sample_demo 

--------------------------------------------------------------------------------------
mkdir: cannot create directory `sample_demo': File exists

-----------------------------work10----------------
2011/04/07 12:26:37
WorkDirectory /data/intradb/pipeline/catalog/sample_pipelines
Executing: mkdir  sample_demo 

--------------------------------------------------------------------------------------

-----------------------------work10----------------
2011/04/07 12:26:38
WorkDirectory /data/intradb/pipeline/catalog/sample_pipelines/sample_demo
Executing: mkdir  Loop1 

--------------------------------------------------------------------------------------

-----------------------------work10----------------
2011/04/07 12:26:38
WorkDirectory /data/intradb/pipeline/catalog/sample_pipelines/sample_demo
Executing: mkdir  Loop2 

--------------------------------------------------------------------------------------

-----------------------------work10----------------
2011/04/07 12:26:38
WorkDirectory /data/intradb/pipeline/catalog/sample_pipelines/sample_demo
Executing: mkdir  Loop3 

--------------------------------------------------------------------------------------

-----------------------------work10----------------
2011/04/07 12:26:39
WorkDirectory /data/intradb/pipeline/catalog/sample_pipelines/sample_demo
Executing: mkdir  AWAIT 

--------------------------------------------------------------------------------------

-----------------------------work10----------------
2011/04/07 12:26:58
WorkDirectory /data/intradb/pipeline/catalog/sample_pipelines
Executing: mkdir  sample_demo 

--------------------------------------------------------------------------------------
mkdir: cannot create directory `sample_demo': File exists

-----------------------------work10----------------
2011/04/07 12:28:15
WorkDirectory /data/intradb/pipeline/catalog/sample_pipelines
Executing: mkdir  sample_demo 

--------------------------------------------------------------------------------------

-----------------------------work10----------------
2011/04/07 12:28:16
WorkDirectory /data/intradb/pipeline/catalog/sample_pipelines/sample_demo
Executing: mkdir  Loop1 

--------------------------------------------------------------------------------------

-----------------------------work10----------------
2011/04/07 12:28:16
WorkDirectory /data/intradb/pipeline/catalog/sample_pipelines/sample_demo
Executing: mkdir  Loop2 

--------------------------------------------------------------------------------------

-----------------------------work10----------------
2011/04/07 12:28:16
WorkDirectory /data/intradb/pipeline/catalog/sample_pipelines/sample_demo
Executing: mkdir  Loop3 

--------------------------------------------------------------------------------------

-----------------------------work10----------------
2011/04/07 12:28:17
WorkDirectory /data/intradb/pipeline/catalog/sample_pipelines/sample_demo
Executing: mkdir  AWAIT 

--------------------------------------------------------------------------------------

-----------------------------work10----------------
2011/04/07 12:30:01
WorkDirectory /data/intradb/pipeline/catalog/sample_pipelines
Executing: mkdir  sample_demo 

--------------------------------------------------------------------------------------
mkdir: cannot create directory `sample_demo': File exists

-----------------------------work10----------------
2011/04/07 12:33:51
WorkDirectory /data/intradb/pipeline/catalog/sample_pipelines
Executing: mkdir  sample_demo 

--------------------------------------------------------------------------------------

-----------------------------work10----------------
2011/04/07 12:33:51
WorkDirectory /data/intradb/pipeline/catalog/sample_pipelines/sample_demo
Executing: mkdir  Loop1 

--------------------------------------------------------------------------------------

-----------------------------work10----------------
2011/04/07 12:33:51
WorkDirectory /data/intradb/pipeline/catalog/sample_pipelines/sample_demo
Executing: mkdir  Loop2 

--------------------------------------------------------------------------------------

-----------------------------work10----------------
2011/04/07 12:33:52
WorkDirectory /data/intradb/pipeline/catalog/sample_pipelines/sample_demo
Executing: mkdir  Loop3 

--------------------------------------------------------------------------------------

-----------------------------work10----------------
2011/04/07 12:33:52
WorkDirectory /data/intradb/pipeline/catalog/sample_pipelines/sample_demo
Executing: mkdir  AWAIT 

--------------------------------------------------------------------------------------

-----------------------------work10----------------
2011/04/07 12:34:05
WorkDirectory /data/intradb/pipeline/catalog/sample_pipelines
Executing: mkdir  sample_demo 

--------------------------------------------------------------------------------------

-----------------------------work10----------------
2011/04/07 12:34:05
WorkDirectory /data/intradb/pipeline/catalog/sample_pipelines/sample_demo
Executing: mkdir  Loop1 

--------------------------------------------------------------------------------------

-----------------------------work10----------------
2011/04/07 12:34:06
WorkDirectory /data/intradb/pipeline/catalog/sample_pipelines/sample_demo
Executing: mkdir  Loop2 

--------------------------------------------------------------------------------------

-----------------------------work10----------------
2011/04/07 12:34:06
WorkDirectory /data/intradb/pipeline/catalog/sample_pipelines/sample_demo
Executing: mkdir  Loop3 

--------------------------------------------------------------------------------------

-----------------------------work10----------------
2011/04/07 12:34:06
WorkDirectory /data/intradb/pipeline/catalog/sample_pipelines/sample_demo
Executing: mkdir  AWAIT 

--------------------------------------------------------------------------------------

-----------------------------work10----------------
2011/04/07 12:36:19
WorkDirectory /data/intradb/pipeline/catalog/sample_pipelines
Executing: mkdir  sample_demo 

--------------------------------------------------------------------------------------
mkdir: cannot create directory `sample_demo': File exists

-----------------------------work10----------------
2011/04/07 12:38:20
WorkDirectory /data/intradb/pipeline/catalog/sample_pipelines
Executing: mkdir  sample_demo 

--------------------------------------------------------------------------------------

-----------------------------work10----------------
2011/04/07 12:38:20
WorkDirectory /data/intradb/pipeline/catalog/sample_pipelines/sample_demo
Executing: mkdir  Loop1 

--------------------------------------------------------------------------------------

-----------------------------work10----------------
2011/04/07 12:38:21
WorkDirectory /data/intradb/pipeline/catalog/sample_pipelines/sample_demo
Executing: mkdir  Loop2 

--------------------------------------------------------------------------------------

-----------------------------work10----------------
2011/04/07 12:38:21
WorkDirectory /data/intradb/pipeline/catalog/sample_pipelines/sample_demo
Executing: mkdir  Loop3 

--------------------------------------------------------------------------------------

-----------------------------work10----------------
2011/04/07 12:38:21
WorkDirectory /data/intradb/pipeline/catalog/sample_pipelines/sample_demo
Executing: mkdir  AWAIT 

--------------------------------------------------------------------------------------

-----------------------------work10----------------
2011/04/07 12:39:17
WorkDirectory /data/intradb/pipeline/catalog/sample_pipelines
Executing: mkdir  sample_demo 

--------------------------------------------------------------------------------------

-----------------------------work10----------------
2011/04/07 12:39:17
WorkDirectory /data/intradb/pipeline/catalog/sample_pipelines/sample_demo
Executing: mkdir  Loop1 

--------------------------------------------------------------------------------------

-----------------------------work10----------------
2011/04/07 12:39:17
WorkDirectory /data/intradb/pipeline/catalog/sample_pipelines/sample_demo
Executing: mkdir  Loop2 

--------------------------------------------------------------------------------------

-----------------------------work10----------------
2011/04/07 12:39:18
WorkDirectory /data/intradb/pipeline/catalog/sample_pipelines/sample_demo
Executing: mkdir  Loop3 

--------------------------------------------------------------------------------------

-----------------------------work10----------------
2011/04/07 12:39:18
WorkDirectory /data/intradb/pipeline/catalog/sample_pipelines/sample_demo
Executing: mkdir  AWAIT 

--------------------------------------------------------------------------------------
